<define-tag pagetitle>DSA-4916-1 prosody</define-tag>
<define-tag report_date>2021-5-17</define-tag>
<define-tag secrefs>CVE-2021-32917 CVE-2021-32918 CVE-2021-32919 CVE-2021-32920 CVE-2021-32921</define-tag>
<define-tag packages>prosody</define-tag>
<define-tag isvulnerable>yes</define-tag>
<define-tag fixed>yes</define-tag>
<define-tag fixed-section>no</define-tag>

#use wml::debian::security



</dl>
