<define-tag pagetitle>DSA-4943-1 lemonldap-ng</define-tag>
<define-tag report_date>2021-7-23</define-tag>
<define-tag secrefs>CVE-2021-35472</define-tag>
<define-tag packages>lemonldap-ng</define-tag>
<define-tag isvulnerable>yes</define-tag>
<define-tag fixed>yes</define-tag>
<define-tag fixed-section>no</define-tag>

#use wml::debian::security



</dl>
