<define-tag pagetitle>DSA-4649-1 haproxy</define-tag>
<define-tag report_date>2020-4-02</define-tag>
<define-tag secrefs>CVE-2020-11100</define-tag>
<define-tag packages>haproxy</define-tag>
<define-tag isvulnerable>yes</define-tag>
<define-tag fixed>yes</define-tag>
<define-tag fixed-section>no</define-tag>

#use wml::debian::security



</dl>
