<define-tag pagetitle>DSA-4812-1 xen</define-tag>
<define-tag report_date>2020-12-15</define-tag>
<define-tag secrefs>CVE-2020-29479 CVE-2020-29480 CVE-2020-29481 CVE-2020-29482 CVE-2020-29483 CVE-2020-29484 CVE-2020-29485 CVE-2020-29486 CVE-2020-29566 CVE-2020-29570 CVE-2020-29571</define-tag>
<define-tag packages>xen</define-tag>
<define-tag isvulnerable>yes</define-tag>
<define-tag fixed>yes</define-tag>
<define-tag fixed-section>no</define-tag>

#use wml::debian::security



</dl>
