<define-tag pagetitle>DLA-2755-1 btrbk</define-tag>
<define-tag report_date>2021-9-5</define-tag>
<define-tag secrefs>CVE-2021-38173</define-tag>
<define-tag packages>btrbk</define-tag>
<define-tag isvulnerable>yes</define-tag>
<define-tag fixed>yes</define-tag>
<define-tag fixed-section>no</define-tag>

#use wml::debian::security

