<define-tag pagetitle>DLA-2857-2 postgis</define-tag>
<define-tag report_date>2021-12-29</define-tag>
<define-tag packages>postgis</define-tag>
<define-tag isvulnerable>yes</define-tag>
<define-tag fixed>yes</define-tag>
<define-tag fixed-section>no</define-tag>

#use wml::debian::security

