<define-tag pagetitle>DLA-1110-1 samba</define-tag>
<define-tag report_date>2017-9-25</define-tag>
<define-tag secrefs>CVE-2017-12150 CVE-2017-12163</define-tag>
<define-tag packages>samba</define-tag>
<define-tag isvulnerable>yes</define-tag>
<define-tag fixed>yes</define-tag>
<define-tag fixed-section>no</define-tag>

#use wml::debian::security

