<define-tag pagetitle>DLA-2339-1 software-properties</define-tag>
<define-tag report_date>2020-08-22</define-tag>
<define-tag secrefs>CVE-2020-15709 Bug#968850</define-tag>
<define-tag packages>software-properties</define-tag>
<define-tag isvulnerable>yes</define-tag>
<define-tag fixed>yes</define-tag>
<define-tag fixed-section>no</define-tag>

#use wml::debian::security

