<define-tag pagetitle>DLA-2233-2 python-django</define-tag>
<define-tag report_date>2020-06-12</define-tag>
<define-tag secrefs>CVE-2020-13254</define-tag>
<define-tag packages>python-django</define-tag>
<define-tag isvulnerable>yes</define-tag>
<define-tag fixed>yes</define-tag>
<define-tag fixed-section>no</define-tag>

#use wml::debian::security
