<define-tag pagetitle>DLA-2413-1 phpmyadmin</define-tag>
<define-tag report_date>2020-10-26</define-tag>
<define-tag secrefs>CVE-2019-19617 CVE-2020-26934 CVE-2020-26935 Bug#971999 Bug#972000</define-tag>
<define-tag packages>phpmyadmin</define-tag>
<define-tag isvulnerable>yes</define-tag>
<define-tag fixed>yes</define-tag>
<define-tag fixed-section>no</define-tag>

#use wml::debian::security

