<define-tag pagetitle>DLA-1471-1 kamailio</define-tag>
<define-tag report_date>2018-8-19</define-tag>
<define-tag secrefs>CVE-2018-14767</define-tag>
<define-tag packages>kamailio</define-tag>
<define-tag isvulnerable>yes</define-tag>
<define-tag fixed>yes</define-tag>
<define-tag fixed-section>no</define-tag>

#use wml::debian::security

