<define-tag pagetitle>DLA-1593-1 phpbb3</define-tag>
<define-tag report_date>2018-11-24</define-tag>
<define-tag secrefs>CVE-2018-19274</define-tag>
<define-tag packages>phpbb3</define-tag>
<define-tag isvulnerable>yes</define-tag>
<define-tag fixed>yes</define-tag>
<define-tag fixed-section>no</define-tag>

#use wml::debian::security

