<define-tag pagetitle>DSA-4519-1 libreoffice</define-tag>
<define-tag report_date>2019-9-08</define-tag>
<define-tag secrefs>CVE-2019-9854</define-tag>
<define-tag packages>libreoffice</define-tag>
<define-tag isvulnerable>yes</define-tag>
<define-tag fixed>yes</define-tag>
<define-tag fixed-section>no</define-tag>

#use wml::debian::security



</dl>
