<define-tag pagetitle>DSA-4489-1 patch</define-tag>
<define-tag report_date>2019-7-27</define-tag>
<define-tag secrefs>CVE-2019-13636 CVE-2019-13638 Bug#932401 Bug#933140</define-tag>
<define-tag packages>patch</define-tag>
<define-tag isvulnerable>yes</define-tag>
<define-tag fixed>yes</define-tag>
<define-tag fixed-section>no</define-tag>

#use wml::debian::security



</dl>
