<define-tag pagetitle>DLA-1771-1 linux-4.9</define-tag>
<define-tag report_date>2019-05-03</define-tag>
<define-tag secrefs>CVE-2018-14625 CVE-2018-16884 CVE-2018-19824 CVE-2018-19985 CVE-2018-20169 CVE-2018-1000026 CVE-2019-3459 CVE-2019-3460 CVE-2019-3701 CVE-2019-3819 CVE-2019-6974 CVE-2019-7221 CVE-2019-7222 CVE-2019-8980 CVE-2019-9213 Bug#904385 Bug#918103 Bug#922306</define-tag>
<define-tag packages>linux-4.9</define-tag>
<define-tag isvulnerable>yes</define-tag>
<define-tag fixed>yes</define-tag>
<define-tag fixed-section>no</define-tag>

#use wml::debian::security

