<define-tag pagetitle>DLA-1913-1 memcached</define-tag>
<define-tag report_date>2019-09-07</define-tag>
<define-tag secrefs>CVE-2019-15026</define-tag>
<define-tag packages>memcached</define-tag>
<define-tag isvulnerable>yes</define-tag>
<define-tag fixed>yes</define-tag>
<define-tag fixed-section>no</define-tag>

#use wml::debian::security
