<define-tag pagetitle>DLA-1694-1 qemu</define-tag>
<define-tag report_date>2019-02-28</define-tag>
<define-tag secrefs>CVE-2018-12617 CVE-2018-16872 CVE-2019-6778 Bug#916397 Bug#902725 Bug#921525</define-tag>
<define-tag packages>qemu</define-tag>
<define-tag isvulnerable>yes</define-tag>
<define-tag fixed>yes</define-tag>
<define-tag fixed-section>no</define-tag>

#use wml::debian::security

