<define-tag pagetitle>DLA-517-1 imagemagick</define-tag>
<define-tag report_date>2016-6-17</define-tag>
<define-tag secrefs>CVE-2016-4563</define-tag>
<define-tag packages>imagemagick</define-tag>
<define-tag isvulnerable>yes</define-tag>
<define-tag fixed>yes</define-tag>
<define-tag fixed-section>no</define-tag>

#use wml::debian::security

