<define-tag pagetitle>DLA-548-1 drupal7</define-tag>
<define-tag report_date>2016-7-11</define-tag>
<define-tag secrefs>CVE-2015-7943</define-tag>
<define-tag packages>drupal7</define-tag>
<define-tag isvulnerable>yes</define-tag>
<define-tag fixed>yes</define-tag>
<define-tag fixed-section>no</define-tag>

#use wml::debian::security

