<define-tag pagetitle>DLA-570-1 kde4libs</define-tag>
<define-tag report_date>2016-7-30</define-tag>
<define-tag secrefs>CVE-2016-6232 Bug#832620</define-tag>
<define-tag packages>kde4libs</define-tag>
<define-tag isvulnerable>yes</define-tag>
<define-tag fixed>yes</define-tag>
<define-tag fixed-section>no</define-tag>

#use wml::debian::security

