<define-tag pagetitle>DLA-559-1 ntp</define-tag>
<define-tag report_date>2016-7-25</define-tag>
<define-tag secrefs>CVE-2015-7974 CVE-2015-7977 CVE-2015-7978 CVE-2015-7979 CVE-2015-8138 CVE-2015-8158 CVE-2016-1547 CVE-2016-1548 CVE-2016-1550 CVE-2016-2516 CVE-2016-2518</define-tag>
<define-tag packages>ntp</define-tag>
<define-tag isvulnerable>yes</define-tag>
<define-tag fixed>yes</define-tag>
<define-tag fixed-section>no</define-tag>

#use wml::debian::security

